classA,classB,count
ant,cloporte,56129
ant,cockroach,4560
ant,colemboles,690
ant,coleo,3000
ant,derma,600
ant,diptere,19081
ant,hemiptere,12000
ant,iule,240
ant,lombric,600
ant,mite,270
ant,slug,92040
ant,snail,18570
ant,spider,9420
ant,weevil,3510
cloporte,ant,56129
cloporte,cockroach,4740
cloporte,colemboles,30
cloporte,diptere,660
cloporte,slug,4769
cloporte,snail,60
cloporte,spider,1380
cockroach,ant,4560
cockroach,cloporte,4740
cockroach,colemboles,300
cockroach,diptere,30
cockroach,slug,14040
cockroach,snail,9210
cockroach,spider,660
cockroach,weevil,30
colemboles,ant,690
colemboles,cloporte,30
colemboles,cockroach,300
colemboles,diptere,420
colemboles,iule,30
colemboles,slug,18300
colemboles,snail,3240
colemboles,spider,120
colemboles,weevil,3000
coleo,ant,3000
coleo,spider,30
derma,ant,600
derma,slug,1890
derma,weevil,150
diptere,ant,19081
diptere,cloporte,660
diptere,cockroach,30
diptere,colemboles,420
diptere,slug,840
diptere,snail,570
diptere,spider,60
diptere,weevil,60
hemiptere,ant,12000
hemiptere,spider,30
iule,ant,240
iule,colemboles,30
iule,snail,90
iule,spider,60
iule,weevil,30
lombric,ant,600
lombric,slug,90
mite,ant,270
ortho,slug,30
slug,ant,92040
slug,cloporte,4769
slug,cockroach,14040
slug,colemboles,18300
slug,derma,1890
slug,diptere,840
slug,lombric,90
slug,ortho,30
slug,snail,26370
slug,spider,450
slug,weevil,3660
snail,ant,18570
snail,cloporte,60
snail,cockroach,9210
snail,colemboles,3240
snail,diptere,570
snail,iule,90
snail,slug,26370
snail,spider,60
snail,weevil,1020
spider,ant,9420
spider,cloporte,1380
spider,cockroach,660
spider,colemboles,120
spider,coleo,30
spider,diptere,60
spider,hemiptere,30
spider,iule,60
spider,slug,450
spider,snail,60
weevil,ant,3510
weevil,cockroach,30
weevil,colemboles,3000
weevil,derma,150
weevil,diptere,60
weevil,iule,30
weevil,slug,3660
weevil,snail,1020
